…
Then to count the number of bases corresponding to a score we sum over the width of each range in each chromosome. Then we join the resulting `tibble` to the annotation `tibble` called `hg19`. Note that in the sums we have coerced integer variables to doubles to avoid overflow.

``` r
cvg_hist_by_seq <- cvg %>%
  group_by(seqnames, score) %>%
  summarise(count = sum(as.numeric(width))) %>%  
  left_join(., hg19, by = "seqnames") %>% 
  mutate(fraction = count / width)

cvg_hist_by_seq
```

    ## # A tibble: 608 x 5
    ##    seqnames score     count     width  fraction
    ##      <fctr> <int>     <dbl>     <int>     <dbl>
    ##  1     chr1     0 241996316 249250621 0.9708955
    ##  2     chr2     0 238060317 243199373 0.9788690
    ##  3     chr3     0 193800642 198022430 0.9786803
    ##  4     chr4     0 188206114 191154276 0.9845771
    ##  5     chr5     0 177466741 180915260 0.9809385
    ##  6     chr6     0 167349524 171115067 0.9779941
    ##  7     chr7     0 155623839 159138663 0.9779135
    ##  8     chr8     0 143743330 146364022 0.9820947
    ##  9     chr9     0 138299162 141213431 0.9793627
    ## 10    chr10     0 132497709 135534747 0.9775922
    ## # ... with 598 more rows
…
    ## Joining, by = "seqnames"

``` r
cvg_hist_total
```

    ## # A tibble: 45 x 5
    ##    score      count seqnames      width     fraction
    ##    <int>      <dbl>    <chr>      <dbl>        <dbl>
    ##  1     0 3062406951   genome 3137161264 0.9761713515
    ##  2     1   44120515   genome 3137161264 0.0140638339
    ##  3     2   15076446   genome 3137161264 0.0048057606
    ##  4     3    7294047   genome 3137161264 0.0023250469
    ##  5     4    3650324   genome 3137161264 0.0011635755
    ##  6     5    1926397   genome 3137161264 0.0006140574
    ##  7     6    1182623   genome 3137161264 0.0003769723
    ##  8     7     574102   genome 3137161264 0.0001830005
    ##  9     8     353352   genome 3137161264 0.0001126343
    ## 10     9     152653   genome 3137161264 0.0000486596
    ## # ... with 35 more rows

``` r
cvg_hist <- bind_rows(cvg_hist_by_seq, cvg_hist_total)
cvg_hist
```

    ## # A tibble: 653 x 5
    ##    seqnames score     count     width  fraction
    ##       <chr> <int>     <dbl>     <dbl>     <dbl>
    ##  1     chr1     0 241996316 249250621 0.9708955
    ##  2     chr2     0 238060317 243199373 0.9788690
    ##  3     chr3     0 193800642 198022430 0.9786803
    ##  4     chr4     0 188206114 191154276 0.9845771
    ##  5     chr5     0 177466741 180915260 0.9809385
    ##  6     chr6     0 167349524 171115067 0.9779941
    ##  7     chr7     0 155623839 159138663 0.9779135
    ##  8     chr8     0 143743330 146364022 0.9820947
    ##  9     chr9     0 138299162 141213431 0.9793627
    ## 10    chr10     0 132497709 135534747 0.9775922
    ## # ... with 643 more rows
…
We can also compute the coverage histogram of exons over cpg islands and then plot results as an ecdf.

``` r
cvg_over_exons <- exons %>% 
  set_coverage() %>%
  join_overlap_inner(., cpg) %>%
  mutate(total = sum(as.numeric(width))) %>% 
  group_by(score) %>%
  summarise(count = sum(as.numeric(width)),
            fraction = count / unique(total)) 

cvg_over_exons
```

    ## # A tibble: 28 x 3
    ##    score    count     fraction
    ##    <int>    <dbl>        <dbl>
    ##  1     0 14607020 0.6687356377
    ##  2     1  4644079 0.2126142862
    ##  3     2  1431318 0.0655283114
    ##  4     3   581001 0.0265992704
    ##  5     4   245183 0.0112249186
    ##  6     5   137255 0.0062837807
    ##  7     6    84053 0.0038480975
    ##  8     7    41162 0.0018844704
    ##  9     8    32327 0.0014799882
    ## 10     9     9186 0.0004205516
    ## # ... with 18 more rows
…
